<?xml version="1.0" ?>
<svg version="1.1" xmlns="http://www.w3.org/2000/svg" x="0px" y="0px" viewBox="0 0 800 800">
	<g id="LogoMaximo">
		<g>
			<g>
				<path d="M13.7,246h107.7v31.7H85v190.1H50.2V277.7H13.7V246z"/>
				<path d="M237.4,467.8h-35.2l-6-40.2h-42.8l-6,40.2h-32L150.9,246h51L237.4,467.8z M157.9,397.5h33.6l-16.8-112.2L157.9,397.5z"/>
				<path d="M326.4,467.8c-1.9-5.7-3.2-9.2-3.2-27.2v-34.9c0-20.6-7-28.2-22.8-28.2h-12v90.3h-34.9V246h52.6
					c36.1,0,51.6,16.8,51.6,51v17.4c0,22.8-7.3,37.7-22.8,45c17.4,7.3,23.1,24.1,23.1,47.2v34.2c0,10.8,0.3,18.7,3.8,26.9H326.4z
					 M288.4,277.7v68.1H302c13,0,20.9-5.7,20.9-23.4v-21.9c0-15.8-5.4-22.8-17.7-22.8H288.4z"/>
				<path d="M433.2,344.3H482v70.3c0,35.5-17.7,55.8-52,55.8c-34.2,0-52-20.3-52-55.8V299.3c0-35.5,17.7-55.8,52-55.8
					c34.2,0,52,20.3,52,55.8v21.5h-33V297c0-15.8-7-21.9-18.1-21.9c-11.1,0-18.1,6-18.1,21.9v119.8c0,15.8,7,21.5,18.1,21.5
					c11.1,0,18.1-5.7,18.1-21.5v-40.9h-15.8V344.3z"/>
				<path d="M539.3,339.5h47.8v31.7h-47.8v65h60.2v31.7h-95.1V246h95.1v31.7h-60.2V339.5z"/>
				<path d="M610.9,246h107.7v31.7h-36.4v190.1h-34.9V277.7h-36.4V246z"/>
			</g>
			<g>
				<path d="M46.1,529.3v8.5c0,10.3-5.1,16.1-15,16.1s-15-5.9-15-16.1v-33.3c0-10.3,5.1-16.1,15-16.1s15,5.9,15,16.1v6.2h-9.5v-6.9
					c0-4.6-2-6.3-5.2-6.3c-3.2,0-5.2,1.7-5.2,6.3v34.6c0,4.6,2,6.2,5.2,6.2c3.2,0,5.2-1.6,5.2-6.2v-9.2H46.1z"/>
				<path d="M51.4,504.5c0-10.3,5.4-16.1,15.3-16.1c9.9,0,15.3,5.9,15.3,16.1v33.3c0,10.3-5.4,16.1-15.3,16.1
					c-9.9,0-15.3-5.9-15.3-16.1V504.5z M61.5,538.4c0,4.6,2,6.3,5.2,6.3c3.2,0,5.2-1.7,5.2-6.3v-34.6c0-4.6-2-6.3-5.2-6.3
					c-3.2,0-5.2,1.7-5.2,6.3V538.4z"/>
				<path d="M97.5,506.7v46.4h-9.1v-64.1H101l10.4,38.4v-38.4h9v64.1H110L97.5,506.7z"/>
				<path d="M137.7,553.2h-10.1v-64.1h10.1v27.5h11.4v-27.5h10.3v64.1h-10.3v-27.5h-11.4V553.2z"/>
				<path d="M176.8,516.1h13.8v9.2h-13.8V544h17.4v9.2h-27.5v-64.1h27.5v9.2h-17.4V516.1z"/>
				<path d="M229.6,529.3v8.5c0,10.3-5.1,16.1-15,16.1s-15-5.9-15-16.1v-33.3c0-10.3,5.1-16.1,15-16.1s15,5.9,15,16.1v6.2h-9.5v-6.9
					c0-4.6-2-6.3-5.2-6.3c-3.2,0-5.2,1.7-5.2,6.3v34.6c0,4.6,2,6.2,5.2,6.2c3.2,0,5.2-1.6,5.2-6.2v-9.2H229.6z"/>
				<path d="M235.8,489.1h10.1v64.1h-10.1V489.1z"/>
				<path d="M274.5,534.6l6.9-45.5h14v64.1h-9.5v-46l-7,46h-9.5l-7.5-45.3v45.3h-8.8v-64.1h14L274.5,534.6z"/>
				<path d="M312.8,516.1h13.8v9.2h-13.8V544h17.4v9.2h-27.5v-64.1h27.5v9.2h-17.4V516.1z"/>
				<path d="M345.4,506.7v46.4h-9.1v-64.1H349l10.4,38.4v-38.4h9v64.1H358L345.4,506.7z"/>
				<path d="M372.6,489.1h31.1v9.2h-10.5v55h-10.1v-55h-10.5V489.1z"/>
				<path d="M407.3,504.5c0-10.3,5.4-16.1,15.3-16.1s15.3,5.9,15.3,16.1v33.3c0,10.3-5.4,16.1-15.3,16.1s-15.3-5.9-15.3-16.1V504.5z
					 M417.4,538.4c0,4.6,2,6.3,5.2,6.3s5.2-1.7,5.2-6.3v-34.6c0-4.6-2-6.3-5.2-6.3s-5.2,1.7-5.2,6.3V538.4z"/>
				<path d="M491.2,553.2h-10.2l-1.7-11.6H467l-1.7,11.6H456l10.3-64.1H481L491.2,553.2z M468.3,532.8h9.7l-4.9-32.4L468.3,532.8z"/>
				<path d="M525.8,504.9v8.3c0,10.3-4.9,15.8-15,15.8H506v24.1h-10.1v-64.1h14.8C520.8,489.1,525.8,494.6,525.8,504.9z M506,498.2
					v21.7h4.8c3.2,0,4.9-1.5,4.9-6v-9.6c0-4.6-1.7-6-4.9-6H506z"/>
				<path d="M530.9,489.1H541v55h16.6v9.2h-26.7V489.1z"/>
				<path d="M562,489.1H572v64.1H562V489.1z"/>
				<path d="M608.6,529.3v8.5c0,10.3-5.1,16.1-15,16.1s-15-5.9-15-16.1v-33.3c0-10.3,5.1-16.1,15-16.1s15,5.9,15,16.1v6.2h-9.5v-6.9
					c0-4.6-2-6.3-5.2-6.3s-5.2,1.7-5.2,6.3v34.6c0,4.6,2,6.2,5.2,6.2s5.2-1.6,5.2-6.2v-9.2H608.6z"/>
				<path d="M647.3,553.2h-10.2l-1.7-11.6h-12.4l-1.7,11.6h-9.3l10.3-64.1h14.7L647.3,553.2z M624.3,532.8h9.7l-4.9-32.4L624.3,532.8
					z"/>
				<path d="M652,489.1h15.9c10.1,0,15,5.6,15,15.8v32.4c0,10.3-4.9,15.8-15,15.8H652V489.1z M662.1,498.2V544h5.7
					c3.2,0,5.1-1.6,5.1-6.2v-33.3c0-4.6-1.9-6.2-5.1-6.2H662.1z"/>
				<path d="M688.5,504.5c0-10.3,5.4-16.1,15.3-16.1s15.3,5.9,15.3,16.1v33.3c0,10.3-5.4,16.1-15.3,16.1s-15.3-5.9-15.3-16.1V504.5z
					 M698.6,538.4c0,4.6,2,6.3,5.2,6.3s5.2-1.7,5.2-6.3v-34.6c0-4.6-2-6.3-5.2-6.3s-5.2,1.7-5.2,6.3V538.4z"/>
			</g>
			<g>
				<path d="M745,486.4l-6.2-111.3V246.6h48.4v128.5L781,486.4H745z M786.3,508v46.6h-46.6V508H786.3z"/>
			</g>
			<rect x="13.2" y="206.2" width="774" height="20"/>
			<rect x="13.2" y="574.2" width="774" height="20"/>
		</g>
	</g>
</svg>
